
=========
Meyda CLI
=========


Buffer size: 512
Hop size: 512
Windowing function: hanning
Will extract:
zcr rms energy 

Starting extraction...
|Sample rate recognized as: 96000
-----------------------------------------------------------------------------------------------------------------------------------------------------------------------------------------------------------------|
Extraction finished.

208 frames analysed.


*********zcr*********

0
0
16
24
10
4
4
4
2
4
4
4
10
6
4
12
10
6
14
2
8
10
14
16
20
6
12
12
12
22
14
18
14
10
14
18
16
10
20
10
30
10
22
8
14
10
10
14
18
16
16
6
4
24
8
10
12
12
6
8
12
16
12
4
10
12
18
10
8
6
26
12
2
12
12
12
12
14
8
16
20
26
34
12
14
24
14
6
28
14
22
18
28
26
14
16
10
6
0
8
6
8
16
10
10
8
6
12
10
14
28
18
8
4
6
8
12
16
22
14
14
20
10
16
22
26
16
22
26
28
18
24
18
24
20
16
24
20
22
16
16
16
22
26
20
20
12
14
4
8
8
24
16
28
8
10
6
28
18
6
8
20
6
6
6
4
10
12
2
10
8
6
26
14
4
22
18
12
14
16
22
16
10
18
10
14
8
6
18
4
8
20
18
10
20
14
18
10
22
24
18
34
20
16
20
12
16
12


*********rms*********

0
0
0.000034796725314184924
0.00010533808919984093
0.003574245270021995
0.009688836787226604
0.00831428749475295
0.003737482170500399
0.005534011155978717
0.001248616428181581
0.0011958037883984978
0.0017623769884343129
0.00031147388650765325
0.0007163827784978664
0.0008682000071916387
0.0005430669394976382
0.00033772987441919823
0.0003983081186347635
0.00018018296112944275
0.0005014760829005804
0.00031174995693102373
0.00039891737946607265
0.00017363265184223666
0.0003046243800166992
0.00011518315547717009
0.00026581057665765826
0.0001485113610112292
0.00025019300524346957
0.00026120227359048077
0.00022286743872417658
0.00017254499196091354
0.0001524027612043184
0.0002763016380052425
0.00036501320140799697
0.00011384475563003152
0.00018027720585512405
0.0001810683642786067
0.00011887931452180367
0.000146235846376824
0.00018879348716844578
0.00015781383851040735
0.00015804358249206513
0.00017415960324345528
0.0003493762067508715
0.00011367958608645466
0.0001087385966132149
0.00020400896172266398
0.0001540721580595601
0.00017589594121037951
0.00013619009161296475
0.00012403423013943252
0.00024515212454565385
0.0001456735014086497
0.0001556429890305663
0.00019218224907025018
0.00022709669875607593
0.00013161956115814282
0.00017242084210959842
0.00019820266231175925
0.00015407631465315816
0.00009913111795327894
0.0001884613724536901
0.0001668614287271263
0.0003037089834754037
0.0001436804179683658
0.00022763382511170445
0.00011826830229052676
0.00015910321259010626
0.00031015701133101797
0.0003459783805848418
0.00012606774204560608
0.00029624310143123517
0.00025548638741191204
0.00011042007908849596
0.00014895481935819053
0.000242871932509614
0.00015700816843338322
0.00022608582562220073
0.0002527580938370106
0.00018131707060410921
0.00009139183835952841
0.0001127175351861681
0.00006266641487113236
0.00008729776545530063
0.00010181865102532278
0.00007805303059032428
0.00012103422947652584
0.0001920932937860896
0.00007138317279559351
0.00007951277387241494
0.00009122624400802212
0.00007931800361135598
0.000060713385649967316
0.00009896789462655336
0.00012176519053611043
0.00011915597682706275
0.00024625497092542936
0.0001492576033698596
0
0.00016696632534800768
0.0003219329120194291
0.0003499718007632577
0.0001737589955846494
0.0005177580936351447
0.00031532763534795275
0.0003894485167483619
0.00043511455172278953
0.00023323949224620264
0.00017505638746198588
0.00015350331075197657
0.00010959031506726058
0.00019321750082685552
0.00023867720030906962
0.00023070878475460986
0.00036293333719439596
0.00024238761972463684
0.00018285161486330124
0.00017534305938730037
0.00016140286732731289
0.00022753382609675806
0.0001350034229448353
0.00018233424340956988
0.00025824565903432103
0.00012404704847653468
0.0001701644410286181
0.00009263799707821357
0.00015937299239800998
0.0003772907132330604
0.0024700150599007826
0.0019992304380439464
0.002193980651976333
0.0022376489188570547
0.0032391986816791857
0.002089467244496951
0.001728936493110901
0.002544955513698662
0.0007949680492848044
0.0016001528516327943
0.0007778750287495927
0.0009586069540108973
0.0008776870288919705
0.0007953305950202009
0.0004271057229025915
0.0004877286269803918
0.00039768544798994874
0.0003549206887661706
0.0004508315959293528
0.0005082790173080912
0.00039530537119225476
0.0002650109371067614
0.00019878418176342026
0.00033169193180801346
0.00028472958845238714
0.00011279663697777656
0.00019243482771564945
0.0002675045221204021
0.0002747803430267103
0.00014934294101669648
0.00019294631589770545
0.00021724031150023503
0.0002287809902392521
0.00021336819351302846
0.00024892429202993466
0.00034283460287292604
0.00042187186017464114
0.00020305390614608178
0.0003458055666079335
0.00017862897269240938
0.00019122008851984619
0.000299491817790074
0.0004100494830665635
0.0001965152233662949
0.00007179876985828253
0.00014154336654134783
0.00020226478967836836
0.0001886700811206336
0.00012893672237995708
0.0001852431871036615
0.00018283004715791915
0.00011041943626114817
0.000057374586936511976
0.00016309288211035727
0.00007771605101365021
0.0001664570467733818
0.0001953360542039716
0.00011510396167594156
0.00026158619908426254
0.00024694981233208484
0.000169276125171858
0.00016824785812548506
0.00014059685138470755
0.00011674065821770001
0.00008574205681664258
0.000162775389915583
0.00006231279457860621
0.00012612544993657003
0.00011541365776232201
0.00012817124631691544
0.00007573824163031641
0.00009411334253200279
0.00013743205941505544
0.00008668127818578644
0.00013002283253352818
0.00013686797177938747
0.0001387823339421114
0.001068184262372162
0.007203671592167707
0.010499297485003336


*********energy*********

0
0
6.19935791406509e-7
0.0000056812098745721055
0.006540917376140596
0.048063261844231965
0.03539321679124751
0.007152011763101886
0.01568014309094241
0.0007982300081791639
0.000732132710578278
0.0015902579964737528
0.000049672182771805416
0.0002627605940881015
0.0003859308812736315
0.0001509999107969697
0.00005839947165450619
0.00008122847097362681
0.00001662254053446363
0.0001287568700013106
0.00004976027425100552
0.00008147715872772025
0.000015435928466312894
0.00004751155860508587
0.000006792785564507104
0.000036175494483495334
0.000011292479666896717
0.00003204942841485251
0.00003493203339716422
0.000025430986364658996
0.00001524314841640536
0.000011892020030822655
0.00003908740872416259
0.00006821613424748285
0.000006635841732844335
0.000016639933926876556
0.000016786305301775473
0.000007235733207641048
0.000010949080455959586
0.00001824920616817772
0.00001275146630419913
0.00001278862027106621
0.000015529762509781895
0.0000624966317279374
0.00000661660072590728
0.000006053930185426674
0.0000213092641091376
0.000012153973703234593
0.000015840963652754067
0.000009496443419416438
0.000007876859006096237
0.000030770976854654856
0.000010865033734479806
0.000012403066897596916
0.000018910216631142234
0.000026405330219984846
0.000008869738946284595
0.00001522122075841693
0.000020113559217904265
0.00001215462949739469
0.000005031413015893454
0.000018185056720449795
0.00001425548103519122
0.00004722644308155547
0.000010569760003872918
0.000026530385067512858
0.00000716154435926191
0.000012960682115324185
0.00004925305429902807
0.00006128693239404013
0.00000813725469925247
0.00004493310727454571
0.00003341992660622828
0.000006242608059345767
0.000011360019563535961
0.0000302012291076887
0.000012621601256860487
0.000026170777880203344
0.00003270996684806095
0.000016832450607337228
0.000004276463676791895
0.000006505084282083862
0.0000020106647310340504
0.000003901900724986204
0.0000053079233006676295
0.0000031192450991790576
0.000007500433768947874
0.000018892714761005528
0.000002608925367483168
0.0000032370079789495252
0.000004260980529055329
0.000003221168996808233
0.0000018872909809058084
0.000005014857813408035
0.000007591301952663183
0.000007269451168569096
0.000031048453481207844
0.000011406250067821736
0
0.000014273409945710977
0.000053064089518750443
0.00006270989380069239
0.00001545840053585214
0.000137253603084646
0.000050908937018435304
0.00007765511536511954
0.00009693423263791314
0.000027853138300552406
0.000015690106261115352
0.000012064392402850756
0.000006149139024149218
0.00001911449734439727
0.00002916700464505638
0.00002725199020182984
0.00006744095091049529
0.00003008090019623688
0.000017118573085755928
0.000015741536499352753
0.000013338053417716822
0.00002650708071333363
0.000009331673193892904
0.000017021837475707023
0.00003414570004995625
0.000007878487160698749
0.00001482543973917801
0.000004393880833363511
0.000013004672361418827
0.00007288232053345865
0.0031236988908219733
0.0020464242403335116
0.002464538163838205
0.0025636212142398185
0.005372112946888793
0.002235327163302749
0.0015304813553718376
0.003316120866153073
0.00032357079008444786
0.0013109704440773444
0.000309805854900316
0.0004704907736463619
0.00039441127459082984
0.00032386598675209567
0.00009339868085050639
0.00012179415735100323
0.00008097470235799871
0.0000644959720008975
0.0001040635534787621
0.00013227395043106756
0.00008000836428464452
0.00003595816795453637
0.00002023175727070848
0.0000563300032647843
0.000041508320532616064
0.000006514217632510111
0.00001895995541399126
0.00003663803870969072
0.000038658169299904806
0.000011419296784136441
0.000019060879779070535
0.0000241629967056482
0.000026798459645364617
0.000023309304833542736
0.00003172521121925334
0.000060178209242642905
0.00009112364360049254
0.000021110215066205072
0.00006122572282728137
0.000016337054661194512
0.000018721342593811358
0.00004592401864867987
0.00008608797622433583
0.000019772535303528842
0.0000026393924368192615
0.000010257676601271472
0.00002094645511354091
0.000018225356549154028
0.000008511835329580097
0.000017569299644580938
0.000017114534985608676
0.000006242535374965638
0.00000168542373178131
0.000013618835555872202
0.0000030923697076000167
0.000014186469591304101
0.000019535961124852193
0.00000678344806067027
0.000035034797850291934
0.00003122391542315618
0.000014671056155237655
0.000014493358983072437
0.000010120947005078291
0.000006977731215924147
0.000003764070557259963
0.00001356586371183108
0.000001988036796516135
0.000008144706110311545
0.000006819999947816137
0.000008411068611804882
0.0000029369759975691228
0.000004534948476183595
0.000009670436328992426
0.000003846985721815909
0.000008655839733781462
0.000009591214949889641
0.0000098613945417829
0.0005842010206103346
0.026569156816795662
0.056440446811441856

Average zcr: 13.740384615384615
Average rms: 0.0005586472545243975
Average energy: 0.0011096509912493309
